Transforms 13C breath data into a clean format for fitting — cleanup_data • breathtestcore
…
# Results from simulate_breathtest_data can be passed directly to cleanup_data
cleanup_data(simulate_breathtest_data(3))
#> # A tibble: 33 × 4
#>    patient_id group minute   pdr
#>    <chr>      <chr>  <dbl> <dbl>
#>  1 rec_01     A          5     7
#>  2 rec_01     A         20    15
#>  3 rec_01     A         35    18
#>  4 rec_01     A         50    20
#>  5 rec_01     A         65    20
#>  6 rec_01     A         80    19
#>  7 rec_01     A         95    18
#>  8 rec_01     A        110    16
#>  9 rec_01     A        125    14
#> 10 rec_01     A        140    14
#> # … with 23 more rows
# .. which implicitly does
cleanup_data(simulate_breathtest_data(3)$data)
#> # A tibble: 33 × 4
#>    patient_id group minute   pdr
#>    <chr>      <chr>  <dbl> <dbl>
#>  1 rec_01     A          5     4
#>  2 rec_01     A         20    16
#>  3 rec_01     A         35    22
#>  4 rec_01     A         50    25
#>  5 rec_01     A         65    24
#>  6 rec_01     A         80    25
#>  7 rec_01     A         95    24
#>  8 rec_01     A        110    20
#>  9 rec_01     A        125    19
#> 10 rec_01     A        140    16
#> # … with 23 more rows
…
