…
# Results from simulate_breathtest_data can be passed directly to cleanup_data
cleanup_data(simulate_breathtest_data(3))
#> # A tibble: 33 × 4
#>    patient_id group minute   pdr
#>    <chr>      <chr>  <dbl> <dbl>
#>  1 rec_01     A          5     3
#>  2 rec_01     A         20     5
#>  3 rec_01     A         35     9
#>  4 rec_01     A         50    10
#>  5 rec_01     A         65    12
#>  6 rec_01     A         80    12
#>  7 rec_01     A         95    12
#>  8 rec_01     A        110    11
#>  9 rec_01     A        125    11
#> 10 rec_01     A        140    11
#> # ℹ 23 more rows
# .. which implicitly does
cleanup_data(simulate_breathtest_data(3)$data)
#> # A tibble: 33 × 4
#>    patient_id group minute   pdr
#>    <chr>      <chr>  <dbl> <dbl>
#>  1 rec_01     A          5    11
#>  2 rec_01     A         20    22
#>  3 rec_01     A         35    27
#>  4 rec_01     A         50    29
#>  5 rec_01     A         65    29
#>  6 rec_01     A         80    25
#>  7 rec_01     A         95    21
#>  8 rec_01     A        110    21
#>  9 rec_01     A        125    18
#> 10 rec_01     A        140    14
#> # ℹ 23 more rows
…
