Tabulates breath test parameter differences of groups — coef_diff_by_group • breathtestcore
…
  p.value
p-value of the difference against 0, corrected for multiple testing

    Examples

library(dplyr)
data("usz_13c")
data = usz_13c %>%
  dplyr::filter( patient_id %in%
    c("norm_001", "norm_002", "norm_003", "norm_004", "pat_001", "pat_002","pat_003")) %>%
  cleanup_data()
fit = nls_fit(data)
coef_diff_by_group(fit)
#> # A tibble: 27 × 7
#>    parameter method   groups                 estimate conf.low conf.high p.value
#>    <chr>     <chr>    <chr>                     <dbl>    <dbl>     <dbl>   <dbl>
#>  1 beta      exp_beta solid_normal - liquid…  1.40e-1 -3.29e-1   6.09e-1 7.63e-1
#>  2 beta      exp_beta solid_patient - liqui…  2.45e-2 -4.77e-1   5.26e-1 9.93e-1
#>  3 beta      exp_beta solid_patient - solid… -1.16e-1 -5.85e-1   3.53e-1 8.32e-1
#>  4 deviance  exp_beta solid_normal - liquid… -1.41e+1 -2.96e+1   1.38e+0 8.21e-2
#>  5 deviance  exp_beta solid_patient - liqui…  5.20e+1 -2.95e+0   1.07e+2 6.76e-2
#>  6 deviance  exp_beta solid_patient - solid…  6.62e+1  1.17e+1   1.21e+2 1.31e-2
#>  7 k         exp_beta solid_normal - liquid… -3.45e-3 -6.00e-3  -9.01e-4 4.45e-3
#>  8 k         exp_beta solid_patient - liqui… -6.04e-3 -9.60e-3  -2.48e-3 2.25e-4
#>  9 k         exp_beta solid_patient - solid… -2.59e-3 -5.96e-3   7.93e-4 1.71e-1
#> 10 m         exp_beta solid_normal - liquid… -1.57e+1 -1.91e+1  -1.24e+1 0      
#> # … with 17 more rows
# \donttest{
fit = nlme_fit(data)
coef_diff_by_group(fit)
#> # A tibble: 24 × 7
#>    parameter method       groups            estimate conf.low conf.high  p.value
#>    <chr>     <chr>        <chr>                <dbl>    <dbl>     <dbl>    <dbl>
#>  1 beta      exp_beta     solid_normal - l…  8.74e-2 -1.70e-1   3.44e-1 7.05e- 1
#>  2 beta      exp_beta     solid_patient - …  1.17e-1 -1.58e-1   3.92e-1 5.78e- 1
#>  3 beta      exp_beta     solid_patient - …  2.96e-2 -2.27e-1   2.86e-1 9.61e- 1
#>  4 k         exp_beta     solid_normal - l… -3.73e-3 -5.35e-3  -2.11e-3 1.80e- 7
#>  5 k         exp_beta     solid_patient - … -5.51e-3 -8.22e-3  -2.80e-3 4.52e- 6
#>  6 k         exp_beta     solid_patient - … -1.78e-3 -4.38e-3   8.21e-4 2.42e- 1
#>  7 m         exp_beta     solid_normal - l… -1.55e+1 -2.00e+1  -1.10e+1 7.44e-15
#>  8 m         exp_beta     solid_patient - … -4.48e+0 -2.44e+1   1.54e+1 8.54e- 1
#>  9 m         exp_beta     solid_patient - …  1.11e+1 -8.72e+0   3.08e+1 3.82e- 1
#> 10 t50       bluck_coward solid_normal - l…  1.49e+1  3.90e+0   2.59e+1 4.28e- 3
#> # … with 14 more rows
…
