…
## Examples

``` r
d = simulate_breathtest_data(n_records = 3, noise = 0.7, seed = 4712)
data = cleanup_data(d$data)
fit = nlme_fit(data)
plot(fit) # calls plot.breathtestfit

options(digits = 3)
library(dplyr)
cf = coef(fit)
# The coefficients are in long key-value format
cf
#> # A tibble: 24 × 5
#>    patient_id group parameter method                      value
#>    <chr>      <chr> <chr>     <chr>                       <dbl>
#>  1 rec_01     A     m         exp_beta                 44.8    
#>  2 rec_01     A     k         exp_beta                  0.00833
#>  3 rec_01     A     beta      exp_beta                  1.52   
#>  4 rec_01     A     t50       bluck_coward             16.3    
#>  5 rec_01     A     t50       maes_ghoos              120.     
#>  6 rec_01     A     t50       maes_ghoos_scintigraphy  48.4    
#>  7 rec_01     A     tlag      bluck_coward            -33.3    
#>  8 rec_01     A     tlag      maes_ghoos               49.9    
#>  9 rec_02     A     m         exp_beta                 40.0    
#> 10 rec_02     A     k         exp_beta                  0.0122 
#> # ℹ 14 more rows
…
