Data formats • breathtestcore
…
Use function read_breathtest_excel(); this is the only way to select a worksheet different other than first in the workbook by passing parameter sheet. All other methods only read the first worksheet.

Use function read_any_breathtest(). This always reads the first worksheet, but you can combine results from several files, even when they have different formats

With the breathtestshiny GUI, you can drag file in all formats mentioned here into the green field; or select ‘Browse file’; or paste the Excel data or any other tab-separated data into the edit field.

Two-column format

When you have only data from one record, you can supply data in a two-column format as given in sheet 2col of workboot ExcelSamples.xlsx. The column headers must be minute, pdr. With breathtestshiny GUI, you can upload the file, or simply paste it into the editor. This is the easiest method to get a fit for a single patient.

(bt = read_breathtest_excel(btcore_file("ExcelSamples.xlsx"), "2col"))

[[1]]
# A tibble: 22 x 2
  minute   pdr
   <dbl> <dbl>
1   0.42 0.547
2  11.9  1.64 
3  23.4  3.89 
4  34.9  6.13 
# ... with 18 more rows

A list is returned, and its only element is a tibble with two columns. To create a standardized format for fitting and plotting, pass it through cleanup_data which adds dummy columns patient_id (all pat_a), and group (all A)

(cbt = cleanup_data(bt))

# A tibble: 22 x 4
  patient_id group minute   pdr
  <chr>      <chr>  <dbl> <dbl>
1 pat_a      A       0.42 0.547
2 pat_a      A      11.9  1.64 
3 pat_a      A      23.4  3.89 
4 pat_a      A      34.9  6.13 
# ... with 18 more rows
…
Three-column format

When you have more than one patient, you must add a column patient_id which may be numeric or a string.

(bt = read_breathtest_excel(btcore_file("ExcelSamples.xlsx"), "3col"))

[[1]]
# A tibble: 43 x 3
  patient_id minute   pdr
  <chr>       <dbl> <dbl>
1 7951500      0.42 0.547
2 7951500     11.9  1.64 
3 7951500     23.4  3.89 
4 7951500     34.9  6.13 
# ... with 39 more rows

(cbt = cleanup_data(bt))

# A tibble: 43 x 4
  patient_id group minute   pdr
  <chr>      <chr>  <dbl> <dbl>
1 7951500    A       0.42 0.547
2 7951500    A      11.9  1.64 
3 7951500    A      23.4  3.89 
4 7951500    A      34.9  6.13 
# ... with 39 more rows
…
