Tabulates breath test parameter differences of groups — coef_diff_by_group • breathtestcore
…
  p.valuep-value of the difference against 0, corrected for multiple testing

    Examples

library(dplyr)
data("usz_13c")
data = usz_13c %>%
  dplyr::filter( patient_id %in%
    c("norm_001", "norm_002", "norm_003", "norm_004", "pat_001", "pat_002","pat_003")) %>%
  cleanup_data()
fit = nls_fit(data)
coef_diff_by_group(fit)
#> # A tibble: 27 x 7
#>    parameter method   groups               estimate conf.low  conf.high p.value
#>    <chr>     <chr>    <chr>                   <dbl>    <dbl>      <dbl>   <dbl>
#>  1 beta      exp_beta solid_normal - liqu~  1.40e-1 -3.29e-1    6.09e-1 7.63e-1
#>  2 beta      exp_beta solid_patient - liq~  2.45e-2 -4.77e-1    5.26e-1 9.93e-1
#>  3 beta      exp_beta solid_patient - sol~ -1.16e-1 -5.85e-1    3.53e-1 8.32e-1
#>  4 deviance  exp_beta solid_normal - liqu~ -1.41e+1 -2.96e+1    1.38e+0 8.21e-2
#>  5 deviance  exp_beta solid_patient - liq~  5.20e+1 -2.95e+0    1.07e+2 6.75e-2
#>  6 deviance  exp_beta solid_patient - sol~  6.62e+1  1.17e+1    1.21e+2 1.26e-2
#>  7 k         exp_beta solid_normal - liqu~ -3.45e-3 -6.01e-3   -9.00e-4 4.26e-3
#>  8 k         exp_beta solid_patient - liq~ -6.04e-3 -9.60e-3   -2.47e-3 2.61e-4
#>  9 k         exp_beta solid_patient - sol~ -2.59e-3 -5.97e-3    7.94e-4 1.71e-1
#> 10 m         exp_beta solid_normal - liqu~ -1.57e+1 -1.91e+1   -1.23e+1 0.     
#> # ... with 17 more rows
fit = nlme_fit(data)
coef_diff_by_group(fit)
#> # A tibble: 24 x 7
#>    parameter method    groups              estimate conf.low conf.high  p.value
#>    <chr>     <chr>     <chr>                  <dbl>    <dbl>     <dbl>    <dbl>
#>  1 beta      exp_beta  solid_normal - li~   0.0874  -1.70e-1   3.44e-1 7.05e- 1
#>  2 beta      exp_beta  solid_patient - l~   0.117   -1.58e-1   3.92e-1 5.78e- 1
#>  3 beta      exp_beta  solid_patient - s~   0.0296  -2.27e-1   2.86e-1 9.61e- 1
#>  4 k         exp_beta  solid_normal - li~  -0.00373 -5.35e-3  -2.11e-3 1.86e- 7
#>  5 k         exp_beta  solid_patient - l~  -0.00551 -8.22e-3  -2.80e-3 4.66e- 6
#>  6 k         exp_beta  solid_patient - s~  -0.00178 -4.38e-3   8.21e-4 2.42e- 1
#>  7 m         exp_beta  solid_normal - li~ -15.5     -2.00e+1  -1.11e+1 7.55e-15
#>  8 m         exp_beta  solid_patient - l~  -4.48    -2.43e+1   1.53e+1 8.54e- 1
#>  9 m         exp_beta  solid_patient - s~  11.1     -8.63e+0   3.08e+1 3.82e- 1
#> 10 t50       bluck_co~ solid_normal - li~  14.9      3.90e+0   2.59e+1 4.22e- 3
#> # ... with 14 more rows
…
