S3 coef and summary for breathtestfit — coef.breathtestfit • breathtestcore
…
      ...
      other parameters passed to methods

    Examples

# Generate simulated data
data = cleanup_data(simulate_breathtest_data())
# Fit with the population method
fit = nlme_fit(data)
# All coefficients in the long form
coef(fit)

#> # A tibble: 80 x 5
#>    patient_id group parameter method                      value
#>    <chr>      <chr> <chr>     <chr>                       <dbl>
#>  1 rec_01     A     m         exp_beta                 37.1    
#>  2 rec_01     A     k         exp_beta                  0.00955
#>  3 rec_01     A     beta      exp_beta                  1.70   
#>  4 rec_01     A     t50       bluck_coward             23.0    
#>  5 rec_01     A     t50       maes_ghoos              115.     
#>  6 rec_01     A     t50       maes_ghoos_scintigraphy  43.4    
#>  7 rec_01     A     tlag      bluck_coward            -16.8    
#>  8 rec_01     A     tlag      maes_ghoos               55.7    
#>  9 rec_02     A     m         exp_beta                 43.3    
#> 10 rec_02     A     k         exp_beta                  0.0112 
#> # ... with 70 more rows
# Access coefficients directly
fit$coef

#> # A tibble: 80 x 6
#>    patient_id group parameter method                  stat         value
#>    <chr>      <chr> <chr>     <chr>                   <chr>        <dbl>
#>  1 rec_01     A     m         exp_beta                estimate  37.1    
#>  2 rec_01     A     k         exp_beta                estimate   0.00955
#>  3 rec_01     A     beta      exp_beta                estimate   1.70   
#>  4 rec_01     A     t50       bluck_coward            estimate  23.0    
#>  5 rec_01     A     t50       maes_ghoos              estimate 115.     
#>  6 rec_01     A     t50       maes_ghoos_scintigraphy estimate  43.4    
#>  7 rec_01     A     tlag      bluck_coward            estimate -16.8    
#>  8 rec_01     A     tlag      maes_ghoos              estimate  55.7    
#>  9 rec_02     A     m         exp_beta                estimate  43.3    
#> 10 rec_02     A     k         exp_beta                estimate   0.0112 
#> # ... with 70 more rows
…
